Accompanying R Package to Applied Modeling of Hydrological Systems in Central Asia Course • riversCentralAsia
…
library(riversCentralAsia)
library(tidyverse)
#> ── Attaching packages ─────────────────────────────────────── tidyverse 1.3.2 ──
#> ✔ ggplot2 3.4.0      ✔ purrr   0.3.5 
#> ✔ tibble  3.1.8      ✔ dplyr   1.0.10
#> ✔ tidyr   1.2.1      ✔ stringr 1.5.0 
#> ✔ readr   2.1.3      ✔ forcats 0.5.2 
#> ── Conflicts ────────────────────────────────────────── tidyverse_conflicts() ──
#> ✖ dplyr::filter() masks stats::filter()
#> ✖ dplyr::lag()    masks stats::lag()
library(timetk)

# Loading and visualising discharge data
ChirchikRiverBasin  # load data
#> # A tibble: 29,892 × 14
#>    date        data  norm units type  code  station  river basin resol…¹ lon_U…²
#>    <date>     <dbl> <dbl> <chr> <fct> <chr> <chr>    <chr> <chr> <fct>     <dbl>
#>  1 1932-01-10  48.8  38.8 m3s   Q     16279 Khudayd… Chat… Chir… dec      598278
#>  2 1932-01-20  48.4  37.5 m3s   Q     16279 Khudayd… Chat… Chir… dec      598278
#>  3 1932-01-31  42.4  36.6 m3s   Q     16279 Khudayd… Chat… Chir… dec      598278
#>  4 1932-02-10  43.7  36.4 m3s   Q     16279 Khudayd… Chat… Chir… dec      598278
#>  5 1932-02-20  44.2  36.3 m3s   Q     16279 Khudayd… Chat… Chir… dec      598278
#>  6 1932-02-29  47.7  36.9 m3s   Q     16279 Khudayd… Chat… Chir… dec      598278
#>  7 1932-03-10  54.1  39.4 m3s   Q     16279 Khudayd… Chat… Chir… dec      598278
#>  8 1932-03-20  63.2  47.6 m3s   Q     16279 Khudayd… Chat… Chir… dec      598278
#>  9 1932-03-31 103    60.5 m3s   Q     16279 Khudayd… Chat… Chir… dec      598278
#> 10 1932-04-10 103    86.4 m3s   Q     16279 Khudayd… Chat… Chir… dec      598278
#> # … with 29,882 more rows, 3 more variables: lat_UTM42 <dbl>,
#> #   altitude_masl <dbl>, basinSize_sqkm <dbl>, and abbreviated variable names
#> #   ¹​resolution, ²​lon_UTM42
…
