…
Note for windows users: the installation from github requires [RTools](https://cran.r-project.org/bin/windows/Rtools/){target="_blank"}.  

## Data
The package includes an example data set with discharge time series as well as temperature and precipitation time series from the runoff formation zone of the Chirchiq river basin. 

```r
library(riversCentralAsia, quietly = TRUE)
library(tidyverse, quietly = TRUE)
library(timetk, quietly = TRUE)
ChirchikRiverBasin  # load data
#> # A tibble: 29,892 × 14
#>    date        data  norm units type  code  station  river basin resol…¹ lon_U…²
#>    <date>     <dbl> <dbl> <chr> <fct> <chr> <chr>    <chr> <chr> <fct>     <dbl>
#>  1 1932-01-10  48.8  38.8 m3s   Q     16279 Khudayd… Chat… Chir… dec      598278
#>  2 1932-01-20  48.4  37.5 m3s   Q     16279 Khudayd… Chat… Chir… dec      598278
#>  3 1932-01-31  42.4  36.6 m3s   Q     16279 Khudayd… Chat… Chir… dec      598278
#>  4 1932-02-10  43.7  36.4 m3s   Q     16279 Khudayd… Chat… Chir… dec      598278
#>  5 1932-02-20  44.2  36.3 m3s   Q     16279 Khudayd… Chat… Chir… dec      598278
#>  6 1932-02-29  47.7  36.9 m3s   Q     16279 Khudayd… Chat… Chir… dec      598278
#>  7 1932-03-10  54.1  39.4 m3s   Q     16279 Khudayd… Chat… Chir… dec      598278
#>  8 1932-03-20  63.2  47.6 m3s   Q     16279 Khudayd… Chat… Chir… dec      598278
#>  9 1932-03-31 103    60.5 m3s   Q     16279 Khudayd… Chat… Chir… dec      598278
#> 10 1932-04-10 103    86.4 m3s   Q     16279 Khudayd… Chat… Chir… dec      598278
#> # … with 29,882 more rows, 3 more variables: lat_UTM42 <dbl>,
#> #   altitude_masl <dbl>, basinSize_sqkm <dbl>, and abbreviated variable names
#> #   ¹​resolution, ²​lon_UTM42
…
