Hydrological modelling in Central Asia • riversCentralAsia
…
library(riversCentralAsia)
library(tidyverse)
#> ── Attaching packages ─────────────────────────────────────── tidyverse 1.3.0 ──
#> ✓ ggplot2 3.3.3     ✓ purrr   0.3.4
#> ✓ tibble  3.1.0     ✓ dplyr   1.0.5
#> ✓ tidyr   1.1.3     ✓ stringr 1.4.0
#> ✓ readr   1.4.0     ✓ forcats 0.5.1
#> ── Conflicts ────────────────────────────────────────── tidyverse_conflicts() ──
#> x dplyr::filter() masks stats::filter()
#> x dplyr::lag()    masks stats::lag()
library(timetk)
## basic example code
ChirchikRiverBasin # load data
#> # A tibble: 29,892 x 14
#>    date        data  norm units type  code  station   river   basin   resolution
#>    <date>     <dbl> <dbl> <chr> <fct> <chr> <chr>     <chr>   <chr>   <fct>     
#>  1 1932-01-10  48.8  38.8 m3s   Q     16279 Khudaydod Chatkal Chirch… dec       
#>  2 1932-01-20  48.4  37.5 m3s   Q     16279 Khudaydod Chatkal Chirch… dec       
#>  3 1932-01-31  42.4  36.6 m3s   Q     16279 Khudaydod Chatkal Chirch… dec       
#>  4 1932-02-10  43.7  36.4 m3s   Q     16279 Khudaydod Chatkal Chirch… dec       
#>  5 1932-02-20  44.2  36.3 m3s   Q     16279 Khudaydod Chatkal Chirch… dec       
#>  6 1932-02-29  47.7  36.9 m3s   Q     16279 Khudaydod Chatkal Chirch… dec       
#>  7 1932-03-10  54.1  39.4 m3s   Q     16279 Khudaydod Chatkal Chirch… dec       
#>  8 1932-03-20  63.2  47.6 m3s   Q     16279 Khudaydod Chatkal Chirch… dec       
#>  9 1932-03-31 103    60.5 m3s   Q     16279 Khudaydod Chatkal Chirch… dec       
#> 10 1932-04-10 103    86.4 m3s   Q     16279 Khudaydod Chatkal Chirch… dec       
#> # … with 29,882 more rows, and 4 more variables: lon_UTM42 <dbl>,
#> #   lat_UTM42 <dbl>, altitude_masl <dbl>, basinSize_sqkm <dbl>
…
