Discharge processing examples • riversCentralAsia
…
discharge
#> # A tibble: 308 × 10
#>    date        data  norm units type  code  station river   basin resolution
#>    <date>     <dbl> <dbl> <chr> <chr> <chr> <chr>   <chr>   <chr> <fct>     
#>  1 1970-01-31  6.43  7.12 m3/s  Q     16076 Unknown Atbashy Naryn mon       
#>  2 1970-02-28  6.15  6.71 m3/s  Q     16076 Unknown Atbashy Naryn mon       
#>  3 1970-03-31  6.72  6.89 m3/s  Q     16076 Unknown Atbashy Naryn mon       
#>  4 1970-04-30 14.2  13.0  m3/s  Q     16076 Unknown Atbashy Naryn mon       
#>  5 1970-05-31 36    27.8  m3/s  Q     16076 Unknown Atbashy Naryn mon       
#>  6 1970-06-30 45.2  37.4  m3/s  Q     16076 Unknown Atbashy Naryn mon       
#>  7 1970-07-31 37.9  33.1  m3/s  Q     16076 Unknown Atbashy Naryn mon       
#>  8 1970-08-31 37.5  22.7  m3/s  Q     16076 Unknown Atbashy Naryn mon       
#>  9 1970-09-30 20    15.4  m3/s  Q     16076 Unknown Atbashy Naryn mon       
#> 10 1970-10-31 11    11.4  m3/s  Q     16076 Unknown Atbashy Naryn mon       
#> # … with 298 more rows
#> # ℹ Use `print(n = ...)` to see more rows
…
