Discharge processing examples • riversCentralAsia
…
The above code will read the raw data in the csv file you
downloaded.

To demonstrate further data processing, we use the
ChirchikRiverBasin data included in the package. You can
adapt the code snipets below to process the discharge data read in with
the code sniped above.

discharge <- ChirchikRiverBasin |> 
  dplyr::filter(type == "Q", station == "Khudaydod", 
                year(date) < 2015 & year(date) > 1943)

# Inspect the discharge data 
discharge
#> # A tibble: 2,556 × 14
#>    date        data  norm units type  code  station  river basin resol…¹ lon_U…²
#>    <date>     <dbl> <dbl> <chr> <fct> <chr> <chr>    <chr> <chr> <fct>     <dbl>
#>  1 1944-01-10  49.3  38.8 m3s   Q     16279 Khudayd… Chat… Chir… dec      598278
#>  2 1944-01-20  46.6  37.5 m3s   Q     16279 Khudayd… Chat… Chir… dec      598278
#>  3 1944-01-31  43.9  36.6 m3s   Q     16279 Khudayd… Chat… Chir… dec      598278
#>  4 1944-02-10  43.2  36.4 m3s   Q     16279 Khudayd… Chat… Chir… dec      598278
#>  5 1944-02-20  42.6  36.3 m3s   Q     16279 Khudayd… Chat… Chir… dec      598278
#>  6 1944-02-29  43.1  36.9 m3s   Q     16279 Khudayd… Chat… Chir… dec      598278
#>  7 1944-03-10  44.8  39.4 m3s   Q     16279 Khudayd… Chat… Chir… dec      598278
#>  8 1944-03-20  53.9  47.6 m3s   Q     16279 Khudayd… Chat… Chir… dec      598278
#>  9 1944-03-31  67.7  60.5 m3s   Q     16279 Khudayd… Chat… Chir… dec      598278
#> 10 1944-04-10  81.2  86.4 m3s   Q     16279 Khudayd… Chat… Chir… dec      598278
#> # … with 2,546 more rows, 3 more variables: lat_UTM42 <dbl>,
#> #   altitude_masl <dbl>, basinSize_sqkm <dbl>, and abbreviated variable names
#> #   ¹​resolution, ²​lon_UTM42
…
