Preparation of climate forcing • riversCentralAsia
…
# This gives you the temperature forcing for each elevation band in a format that can be imported to RS MINERVE. 
fut_sim_tas
# A tibble: 2,200 x 5
#   Station             Atb_1             Atb_2             Atb_3             Atb_4            
#   <chr>               <chr>             <chr>             <chr>             <chr>            
# 1 Station             Atb_1             Atb_2             Atb_3             Atb_4            
# 2 X                   1121699.41259477  1137845.07398682  1152073.09136446  1162907.10435686 
# 3 Y                   4593793.26535944  4597636.57285844  4600746.13179295  4602406.26249851 
# 4 Z                   1000              2000              3000              4000             
# 5 Sensor              T                 T                 T                 T                
# 6 Category            Temperature       Temperature       Temperature       Temperature      
# 7 Unit                C                 C                 C                 C                
# 8 Interpolation       Linear            Linear            Linear            Linear           
# 9 01.01.2012 00:00:00 -14.048846244812  -14.0820846557617 -14.0855207443237 -14.0795421600342
#10 02.01.2012 00:00:00 -13.4489545822144 -13.4161062240601 -13.4127111434937 -13.4186210632324
# ... with 2,190 more rows
# i Use `print(n = ...)` to see more rows
…
